[api-updater (non-obsolete-error-filter)] 5/25/2021 1:40:54 PM : Starting K:/Unity/Unity Hub/2020.3.2f1/Editor/Data/Tools/ScriptUpdater/APIUpdater.NonObsoleteApiUpdaterDetector.exe
[api-updater (non-obsolete-error-filter)] 
----------------------------------
jit/startup time      : 607.0004ms
moved types parse time: 66ms
candidates parse time : 1ms
C# parse time         : 453ms
candidates check time : 14ms
console write time    : 0ms

